Homework 2
…
df_disasters %>% #group data by year, calculate cpi adjusted cost, and arrange in descending order
  group_by(year) %>%
  count(cpi_adjusted_cost) %>%
  arrange(desc(cpi_adjusted_cost))

#> # A tibble: 402 × 3
#> # Groups:   year [44]
#>     year cpi_adjusted_cost     n
#>    <dbl>             <dbl> <int>
#>  1  2005           201298.     1
#>  2  2017           160000      1
#>  3  2022           119626      1
#>  4  2017           115200      1
#>  5  2012            88454.     1
#>  6  2021            84608.     1
#>  7  2024            78721      1
#>  8  2017            64000      1
#>  9  1992            60480      1
#> 10  1988            54610.     1
#> # ℹ 392 more rows
…
